{
    "providers": [
        {
            "type": "ttf",
            "file": "minecraft:ok_seriously_guys.ttf",
			"size": 
			11.0,
			"oversample": 6.0,
			"skip": "",
            "height": 75,
            "chars": [ "\uE010" ],
            "shift": [ 0.0, 0.0 ]
        }
	]
}